Understanding Word Embeddings
…
tidy_complaints
```

---

# Counting words

First, we tokenize and transform this dataset to a [tidy data structure](https://www.tidytextmining.com/).

```
## # A tibble: 25,464,844 x 2
##    complaint_id word      
##           <dbl> <chr>     
##  1      3384392 transworld
##  2      3384392 systems   
##  3      3384392 inc       
##  4      3384392 is        
##  5      3384392 trying    
##  6      3384392 to        
##  7      3384392 collect   
##  8      3384392 a         
##  9      3384392 debt      
## 10      3384392 that      
## # … with 25,464,834 more rows
```
---

# Counting words

Next, we can create nested dataframes.

```r
nested_words <- tidy_complaints %>%
  nest(words = c(word))

nested_words
```

```
## # A tibble: 134,379 x 2
##    complaint_id words             
##           <dbl> <list>            
##  1      3384392 <tibble [18 × 1]> 
##  2      3417821 <tibble [71 × 1]> 
##  3      3433198 <tibble [77 × 1]> 
##  4      3366475 <tibble [69 × 1]> 
##  5      3385399 <tibble [213 × 1]>
##  6      3313223 <tibble [220 × 1]>
##  7      3446975 <tibble [22 × 1]> 
##  8      3214857 <tibble [64 × 1]> 
##  9      3417374 <tibble [44 × 1]> 
## 10      3444592 <tibble [19 × 1]> 
## # … with 134,369 more rows
```
…
---

# Calculate PMI

When PMI is high, the two words are associated with each other, likely to occur together.

```r
tidy_pmi
```

```
## # A tibble: 5,241,008 x 3
##    item1   item2          pmi
##    <chr>   <chr>        <dbl>
##  1 systems transworld  7.03  
##  2 inc     transworld  5.87  
##  3 is      transworld  0.0686
##  4 trying  transworld  0.737 
##  5 to      transworld -0.0758
##  6 collect transworld  1.04  
##  7 a       transworld -0.618 
##  8 debt    transworld  0.862 
##  9 that    transworld -0.514 
## 10 not     transworld -1.43  
## # … with 5,240,998 more rows
```
…
---

# Time for word vectors! 🎉

We determine word vectors using singular value decomposition.

```r
tidy_word_vectors
```

```
## # A tibble: 787,700 x 3
##    item1   dimension   value
##    <chr>       <int>   <dbl>
##  1 systems         1 0.0169 
##  2 inc             1 0.0195 
##  3 is              1 0.0196 
##  4 trying          1 0.0415 
##  5 to              1 0.00881
##  6 collect         1 0.0372 
##  7 a               1 0.0124 
##  8 debt            1 0.0419 
##  9 that            1 0.0133 
## 10 not             1 0.0210 
## # … with 787,690 more rows
```
…
---

# Explore CFPB word embeddings

```r
tidy_word_vectors %>%
  nearest_neighbors("error")
```

```
## # A tibble: 7,877 x 2
##    item1      value
##    <chr>      <dbl>
##  1 error     0.0403
##  2 issue     0.0295
##  3 problem   0.0273
##  4 issues    0.0222
##  5 mistake   0.0203
##  6 errors    0.0200
##  7 system    0.0195
##  8 problems  0.0175
##  9 situation 0.0156
## 10 not       0.0141
## # … with 7,867 more rows
```

---

# Explore CFPB word embeddings

```r
tidy_word_vectors %>%
  nearest_neighbors("month")
```

```
## # A tibble: 7,877 x 2
##    item1     value
##    <chr>     <dbl>
##  1 month    0.0594
##  2 payment  0.0380
##  3 months   0.0356
##  4 days     0.0323
##  5 payments 0.0313
##  6 year     0.0307
##  7 xx       0.0271
##  8 balance  0.0270
##  9 paid     0.0267
## 10 pay      0.0266
## # … with 7,867 more rows
```

---

# Explore CFPB word embeddings

```r
tidy_word_vectors %>%
  nearest_neighbors("fee")
```

```
## # A tibble: 7,877 x 2
##    item1      value
##    <chr>      <dbl>
##  1 fee       0.0712
##  2 fees      0.0580
##  3 charge    0.0421
##  4 charged   0.0385
##  5 interest  0.0367
##  6 late      0.0342
##  7 charges   0.0335
##  8 overdraft 0.0317
##  9 charging  0.0243
## 10 of        0.0231
## # … with 7,867 more rows
```
…
glove6b <- embedding_glove6b(dimensions = 100)
```

---

# Try pre-trained word embeddings

```r
glove6b
```

```
## # A tibble: 400,000 x 101
##    token      d1      d2      d3      d4      d5      d6      d7      d8      d9     d10     d11      d12     d13
##    <chr>   <dbl>   <dbl>   <dbl>   <dbl>   <dbl>   <dbl>   <dbl>   <dbl>   <dbl>   <dbl>   <dbl>    <dbl>   <dbl>
##  1 "the" -0.0382 -0.245   0.728  -0.400   0.0832  0.0440 -0.391   0.334  -0.575   0.0875  0.288  -0.0673   0.309 
##  2 ","   -0.108   0.111   0.598  -0.544   0.674   0.107   0.0389  0.355   0.0635 -0.0942  0.158  -0.817    0.142 
##  3 "."   -0.340   0.209   0.463  -0.648  -0.384   0.0380  0.171   0.160   0.466  -0.0192  0.415  -0.343    0.269 
##  4 "of"  -0.153  -0.243   0.898   0.170   0.535   0.488  -0.588  -0.180  -1.36    0.425   0.154   0.242    0.135 
##  5 "to"  -0.190   0.0500  0.191  -0.0492 -0.0897  0.210  -0.550   0.0984 -0.201   0.342  -0.0927  0.161   -0.133 
##  6 "and" -0.0720  0.231   0.0237 -0.506   0.339   0.196  -0.329   0.184  -0.181   0.290   0.204  -0.550    0.274 
##  7 "in"   0.0857 -0.222   0.166   0.134   0.382   0.354   0.0129  0.225  -0.438   0.502  -0.359  -0.350    0.0552
##  8 "a"   -0.271   0.0440 -0.0203 -0.174   0.644   0.712   0.355   0.471  -0.296   0.544  -0.723  -0.00476  0.0406
##  9 "\""  -0.305  -0.236   0.176  -0.729  -0.283  -0.256   0.266   0.0253 -0.0748 -0.377  -0.0578  0.122    0.344 
## 10 "'s"   0.589  -0.202   0.735  -0.683  -0.197  -0.180  -0.392   0.342  -0.606   0.638  -0.267   0.365   -0.404 
## # … with 399,990 more rows, and 87 more variables: d14 <dbl>, d15 <dbl>, d16 <dbl>, d17 <dbl>, d18 <dbl>,
## #   d19 <dbl>, d20 <dbl>, d21 <dbl>, d22 <dbl>, d23 <dbl>, d24 <dbl>, d25 <dbl>, d26 <dbl>, d27 <dbl>,
## #   d28 <dbl>, d29 <dbl>, d30 <dbl>, d31 <dbl>, d32 <dbl>, d33 <dbl>, d34 <dbl>, d35 <dbl>, d36 <dbl>,
## #   d37 <dbl>, d38 <dbl>, d39 <dbl>, d40 <dbl>, d41 <dbl>, d42 <dbl>, d43 <dbl>, d44 <dbl>, d45 <dbl>,
## #   d46 <dbl>, d47 <dbl>, d48 <dbl>, d49 <dbl>, d50 <dbl>, d51 <dbl>, d52 <dbl>, d53 <dbl>, d54 <dbl>,
## #   d55 <dbl>, d56 <dbl>, d57 <dbl>, d58 <dbl>, d59 <dbl>, d60 <dbl>, d61 <dbl>, d62 <dbl>, d63 <dbl>,
## #   d64 <dbl>, d65 <dbl>, d66 <dbl>, d67 <dbl>, d68 <dbl>, d69 <dbl>, d70 <dbl>, d71 <dbl>, d72 <dbl>,
## #   d73 <dbl>, d74 <dbl>, d75 <dbl>, d76 <dbl>, d77 <dbl>, d78 <dbl>, d79 <dbl>, d80 <dbl>, d81 <dbl>,
## #   d82 <dbl>, d83 <dbl>, d84 <dbl>, d85 <dbl>, d86 <dbl>, d87 <dbl>, d88 <dbl>, d89 <dbl>, d90 <dbl>,
…
---

# Try pre-trained word embeddings

To compare to the word embeddings we created ourselves, let's transform these to a tidy data structure.

```r
tidy_glove
```

```
## # A tibble: 40,000,000 x 3
##    item1 dimension   value
##    <chr> <chr>       <dbl>
##  1 the   d1        -0.0382
##  2 the   d2        -0.245 
##  3 the   d3         0.728 
##  4 the   d4        -0.400 
##  5 the   d5         0.0832
##  6 the   d6         0.0440
##  7 the   d7        -0.391 
##  8 the   d8         0.334 
##  9 the   d9        -0.575 
## 10 the   d10        0.0875
## # … with 39,999,990 more rows
```

---

# Explore GloVe word embeddings

```r
tidy_glove %>%
  nearest_neighbors("error")
```

```
## # A tibble: 400,000 x 2
##    item1       value
##    <chr>       <dbl>
##  1 error        34.6
##  2 errors       28.1
##  3 data         19.8
##  4 inning       19.4
##  5 game         19.3
##  6 percentage   19.3
##  7 probability  19.2
##  8 unforced     19.1
##  9 fault        19.1
## 10 point        19.0
## # … with 399,990 more rows
```

---

# Explore GloVe word embeddings

```r
tidy_glove %>%
  nearest_neighbors("month")
```

```
## # A tibble: 400,000 x 2
##    item1     value
##    <chr>     <dbl>
##  1 month      32.4
##  2 year       31.2
##  3 last       30.6
##  4 week       30.5
##  5 wednesday  29.6
##  6 tuesday    29.5
##  7 monday     29.3
##  8 thursday   29.1
##  9 percent    28.9
## 10 friday     28.9
## # … with 399,990 more rows
```

---

# Explore GloVe word embeddings

```r
tidy_glove %>%
  nearest_neighbors("fee")
```

```
## # A tibble: 400,000 x 2
##    item1        value
##    <chr>        <dbl>
##  1 fee           39.8
##  2 fees          30.7
##  3 pay           26.6
##  4 $             26.4
##  5 salary        25.9
##  6 payment       25.9
##  7 £             25.4
##  8 tax           24.9
##  9 payments      23.8
## 10 subscription  23.1
## # … with 399,990 more rows
```
…
