Understanding Word Embeddings
…
tidy_complaints
```

---

# Counting words

First, we tokenize and transform this dataset to a [tidy data structure](https://www.tidytextmining.com/).

```
## # A tibble: 12,700,715 x 2
##    complaint_id word    
##           <dbl> <chr>   
##  1      3147294 on      
##  2      3147294 xx      
##  3      3147294 xx      
##  4      3147294 2019    
##  5      3147294 i       
##  6      3147294 have    
##  7      3147294 previous
##  8      3147294 sent    
##  9      3147294 in      
## 10      3147294 disputes
## # … with 12,700,705 more rows
```
---

# Counting words

Next, we can create nested dataframes.

```r
nested_words <- tidy_complaints %>%
  nest(words = c(word))

nested_words
```

```
## # A tibble: 67,186 x 2
##    complaint_id words             
##           <dbl> <list>            
##  1      3147294 <tibble [169 × 1]>
##  2      3189876 <tibble [111 × 1]>
##  3      3475559 <tibble [134 × 1]>
##  4      3134951 <tibble [510 × 1]>
##  5      3356633 <tibble [692 × 1]>
##  6      3347791 <tibble [86 × 1]> 
##  7      3270110 <tibble [101 × 1]>
##  8      3323749 <tibble [119 × 1]>
##  9      3481028 <tibble [572 × 1]>
## 10      3239639 <tibble [33 × 1]> 
## # … with 67,176 more rows
```
…
tidy_pmi <- nested_words %>%  
  mutate(words = future_map(words, slide_windows, 4)) %>%
  unnest(words) %>%
  unite(window_id, complaint_id, window_id) %>%
  pairwise_pmi(word, window_id)
```

---

# Calculate PMI

When PMI is high, two words are associated with each other, likely to occur together.

```
## # A tibble: 3,415,366 x 3
##    item1      item2     pmi
##    <chr>      <chr>   <dbl>
##  1 xx         on     1.46  
##  2 2019       on     0.976 
##  3 i          on    -1.23  
##  4 have       on    -1.04  
##  5 previous   on    -0.445 
##  6 sent       on    -0.909 
##  7 in         on    -1.49  
##  8 disputes   on    -0.0725
##  9 to         on    -1.28  
## 10 transunion on     0.109 
## # … with 3,415,356 more rows
```
…
---

# Time for word vectors! 🎉

We determine word vectors using singular value decomposition.

```r
tidy_word_vectors
```

```
## # A tibble: 585,500 x 3
##   item1    dimension   value
##   <chr>        <int>   <dbl>
## 1 xx               1 -0.0577
## 2 2019             1 -0.0608
## 3 i                1 -0.0131
## 4 have             1 -0.0225
## 5 previous         1 -0.0252
## 6 sent             1 -0.0504
## 7 in               1 -0.0170
## 8 disputes         1 -0.0192
## 9 to               1 -0.0103
## # … with 585,491 more rows
```
…
---

# Explore CFPB word embeddings

```r
tidy_word_vectors %>%
  nearest_neighbors("error")
```

```
## # A tibble: 5,855 x 2
##    item1      value
##    <chr>      <dbl>
##  1 error     0.0408
##  2 issue     0.0274
##  3 problem   0.0248
##  4 errors    0.0242
##  5 issues    0.0220
##  6 system    0.0220
##  7 mistake   0.0217
##  8 correct   0.0160
##  9 incorrect 0.0159
## 10 fraud     0.0144
## # … with 5,845 more rows
```

---

# Explore CFPB word embeddings

```r
tidy_word_vectors %>%
  nearest_neighbors("month")
```

```
## # A tibble: 5,855 x 2
##    item1     value
##    <chr>     <dbl>
##  1 month    0.0612
##  2 months   0.0374
##  3 year     0.0335
##  4 payment  0.0332
##  5 payments 0.0318
##  6 years    0.0311
##  7 amount   0.0280
##  8 pay      0.0275
##  9 days     0.0270
## 10 monthly  0.0261
## # … with 5,845 more rows
```

---

# Explore CFPB word embeddings

```r
tidy_word_vectors %>%
  nearest_neighbors("fee")
```

```
## # A tibble: 5,855 x 2
##    item1      value
##    <chr>      <dbl>
##  1 fee       0.0881
##  2 fees      0.0612
##  3 charge    0.0479
##  4 charged   0.0467
##  5 interest  0.0435
##  6 late      0.0340
##  7 charges   0.0333
##  8 overdraft 0.0332
##  9 charging  0.0287
## 10 per       0.0279
## # … with 5,845 more rows
```
…
glove6b <- embedding_glove6b(dimensions = 100)
```

---

# Try pre-trained word embeddings

```r
glove6b
```

```
## # A tibble: 400,000 x 101
##    token      d1      d2      d3      d4      d5      d6      d7      d8      d9
##    <chr>   <dbl>   <dbl>   <dbl>   <dbl>   <dbl>   <dbl>   <dbl>   <dbl>   <dbl>
##  1 "the" -0.0382 -0.245   0.728  -0.400   0.0832  0.0440 -0.391   0.334  -0.575 
##  2 ","   -0.108   0.111   0.598  -0.544   0.674   0.107   0.0389  0.355   0.0635
##  3 "."   -0.340   0.209   0.463  -0.648  -0.384   0.0380  0.171   0.160   0.466 
##  4 "of"  -0.153  -0.243   0.898   0.170   0.535   0.488  -0.588  -0.180  -1.36  
##  5 "to"  -0.190   0.0500  0.191  -0.0492 -0.0897  0.210  -0.550   0.0984 -0.201 
##  6 "and" -0.0720  0.231   0.0237 -0.506   0.339   0.196  -0.329   0.184  -0.181 
##  7 "in"   0.0857 -0.222   0.166   0.134   0.382   0.354   0.0129  0.225  -0.438 
##  8 "a"   -0.271   0.0440 -0.0203 -0.174   0.644   0.712   0.355   0.471  -0.296 
##  9 "\""  -0.305  -0.236   0.176  -0.729  -0.283  -0.256   0.266   0.0253 -0.0748
## 10 "'s"   0.589  -0.202   0.735  -0.683  -0.197  -0.180  -0.392   0.342  -0.606 
## # … with 399,990 more rows, and 91 more variables: d10 <dbl>, d11 <dbl>,
## #   d12 <dbl>, d13 <dbl>, d14 <dbl>, d15 <dbl>, d16 <dbl>, d17 <dbl>,
## #   d18 <dbl>, d19 <dbl>, …
```
…
```r
tidy_glove <- glove6b %>%
  pivot_longer(contains("d"),
               names_to = "dimension") %>%
  rename(item1 = token)
```

---

# Try pre-trained word embeddings

To compare to the word embeddings we created ourselves, let's transform these to a tidy data structure.

```
## # A tibble: 40,000,000 x 3
##    item1 dimension   value
##    <chr> <chr>       <dbl>
##  1 the   d1        -0.0382
##  2 the   d2        -0.245 
##  3 the   d3         0.728 
##  4 the   d4        -0.400 
##  5 the   d5         0.0832
##  6 the   d6         0.0440
##  7 the   d7        -0.391 
##  8 the   d8         0.334 
##  9 the   d9        -0.575 
## 10 the   d10        0.0875
## # … with 39,999,990 more rows
```

---

# Explore GloVe word embeddings

```r
tidy_glove %>%
  nearest_neighbors("error")
```

```
## # A tibble: 400,000 x 2
##    item1       value
##    <chr>       <dbl>
##  1 error        34.6
##  2 errors       28.1
##  3 data         19.8
##  4 inning       19.4
##  5 game         19.3
##  6 percentage   19.3
##  7 probability  19.2
##  8 unforced     19.1
##  9 fault        19.1
## 10 point        19.0
## # … with 399,990 more rows
```

---

# Explore GloVe word embeddings

```r
tidy_glove %>%
  nearest_neighbors("month")
```

```
## # A tibble: 400,000 x 2
##    item1     value
##    <chr>     <dbl>
##  1 month      32.4
##  2 year       31.2
##  3 last       30.6
##  4 week       30.5
##  5 wednesday  29.6
##  6 tuesday    29.5
##  7 monday     29.3
##  8 thursday   29.1
##  9 percent    28.9
## 10 friday     28.9
## # … with 399,990 more rows
```

---

# Explore GloVe word embeddings

```r
tidy_glove %>%
  nearest_neighbors("fee")
```

```
## # A tibble: 400,000 x 2
##    item1        value
##    <chr>        <dbl>
##  1 fee           39.8
##  2 fees          30.7
##  3 pay           26.6
##  4 $             26.4
##  5 salary        25.9
##  6 payment       25.9
##  7 £             25.4
##  8 tax           24.9
##  9 payments      23.8
## 10 subscription  23.1
## # … with 399,990 more rows
```
…
